<svg width="169" height="56" viewBox="0 0 169 56" fill="none" xmlns="http://www.w3.org/2000/svg">
<g clip-path="url(#clip0_345_374)">
<path d="M144.257 37.7754C142.454 37.7754 140.522 37.0113 140.522 34.8631C140.522 33.5378 141.557 31.9828 144.471 31.9828C146.611 31.9828 148.826 32.9928 148.826 34.6814C148.826 36.6212 146.504 37.7754 144.257 37.7754ZM145.181 22.0327C143.233 22.0327 141.53 22.3427 139.983 22.9732C139.396 23.219 138.964 23.7801 138.964 24.3198C138.964 25.0519 139.476 25.5275 140.266 25.5275C140.693 25.5275 141.157 25.3993 141.696 25.2496C142.438 25.0466 143.361 24.7901 144.503 24.7901C147.187 24.7901 148.852 26.0459 148.852 28.0711V30.5881C147.806 29.8132 146.189 29.3483 144.471 29.3483C141.109 29.3483 137.709 31.3095 137.709 35.0501C137.709 38.7533 140.895 40.4419 143.857 40.4419C145.768 40.4419 147.561 39.7847 148.863 38.6304C148.867 38.7533 148.875 38.6676 148.886 38.8549C148.925 39.5282 149.367 40.3511 150.279 40.3511C151.192 40.3511 151.672 39.7419 151.672 39.0472V27.8521C151.672 24.3198 149.125 22.0327 145.181 22.0327Z" fill="#2B3A45"/>
<path d="M87.3952 29.8934C87.0857 29.7651 86.7761 29.6422 86.4666 29.5193C84.6094 28.7765 82.8537 28.0765 82.8537 27.0238C82.8537 24.9771 85.4793 24.8222 86.2852 24.8222C87.7581 24.8222 89.1883 25.2069 89.8393 25.5863C90.0849 25.7253 90.3731 25.8054 90.6452 25.8054C91.4244 25.8054 91.9419 25.271 91.9419 24.4695C91.9419 23.8977 91.6752 23.4114 91.2269 23.1709C89.8554 22.4282 88.1636 22.0327 86.3438 22.0327C82.4373 22.0327 79.9131 24.1007 79.9131 27.3017C79.9131 30.2193 83.8836 31.6622 86.2585 32.5225C87.8221 33.0836 89.6206 33.9012 89.6206 35.2371C89.6206 37.0219 87.726 37.6525 86.0983 37.6525C84.7321 37.6525 83.3553 37.2036 82.0051 36.3166C81.6423 36.06 81.2954 35.9318 80.9698 35.9318C80.3561 35.9318 79.6997 36.3272 79.6997 37.4494C79.6997 37.9518 79.8864 38.3686 80.2174 38.5877C82.2293 39.8702 84.0277 40.4419 86.0396 40.4419C89.0868 40.4419 92.6518 39.0205 92.6518 35.018C92.6518 32.0736 89.9781 30.9675 87.3952 29.8934Z" fill="#2B3A45"/>
<path d="M106.34 22.2788C105.476 22.2788 105.038 22.7651 105.038 23.7323V31.1441C105.038 35.3122 102.685 37.5619 100.475 37.5619C98.6715 37.5619 96.8303 36.926 96.8303 32.2235L96.7993 23.6735C96.7993 22.7597 96.319 22.2788 95.4064 22.2788C94.5259 22.2788 94.0455 22.7758 94.0455 23.6735V33.2068C94.0455 35.6328 94.6806 37.5085 95.94 38.7803C97.0127 39.8651 98.4857 40.4422 100.199 40.4422C101.981 40.4422 103.668 39.4964 104.916 37.8291V39.0475C104.916 39.8865 105.418 40.3514 106.341 40.3514C107.217 40.3514 107.702 39.8972 107.702 39.0796V23.7323C107.702 22.7918 107.215 22.2788 106.34 22.2788Z" fill="#2B3A45"/>
<path d="M129.197 37.7758C125.851 37.7758 124.352 34.5855 124.352 31.3312C124.352 28.1623 125.867 24.7584 129.197 24.7584C130.825 24.7584 133.579 26.1691 133.579 31.4541C133.579 34.4145 132.431 37.7758 129.197 37.7758ZM129.042 22.0331C127.201 22.0331 125.248 23.182 124.229 24.737V16.9672C124.229 16.016 123.748 15.5137 122.836 15.5137C121.929 15.5137 121.448 15.9251 121.448 16.8763V38.8338C121.448 39.8117 121.929 40.3514 122.809 40.3514C123.62 40.3514 124.229 39.7102 124.229 38.8605V38.091C125.275 39.5606 127.036 40.4423 129.042 40.4423C131.337 40.4423 133.258 39.4484 134.614 37.562C135.799 35.9108 136.45 33.7786 136.45 31.39C136.45 26.7409 133.909 22.0331 129.042 22.0331Z" fill="#2B3A45"/>
<path d="M54.8521 37.7754C53.0483 37.7754 51.1165 37.0113 51.1165 34.8631C51.1165 33.5378 52.1518 31.9828 55.071 31.9828C57.2056 31.9828 59.4203 32.9928 59.4203 34.6814C59.4203 36.6212 57.0988 37.7754 54.8521 37.7754ZM55.7753 22.0327C53.8275 22.0327 52.1251 22.3427 50.5828 22.9732C49.9904 23.219 49.5634 23.7801 49.5634 24.3198C49.5634 25.0519 50.0705 25.5275 50.8603 25.5275C51.2872 25.5275 51.7515 25.3993 52.2905 25.2496C53.0323 25.0466 53.9555 24.7901 55.0975 24.7901C57.7819 24.7901 59.4523 26.0459 59.4523 28.0711V30.5881C58.401 29.8132 56.784 29.3483 55.071 29.3483C51.7089 29.3483 48.304 31.3095 48.304 35.0501C48.304 38.7533 51.49 40.4419 54.4572 40.4419C56.3624 40.4419 58.1556 39.7847 59.4577 38.6304C59.4616 38.7533 59.4693 38.6676 59.4809 38.8549C59.5196 39.5282 59.9612 40.3511 60.8738 40.3511C61.7917 40.3511 62.2666 39.7419 62.2666 39.0472V27.8521C62.2666 24.3198 59.7191 22.0327 55.7753 22.0327Z" fill="#2B3A45"/>
<path d="M117.729 22.0327C115.631 22.0327 113.774 22.9091 112.611 24.4214V23.732C112.611 22.7808 112.131 22.2785 111.218 22.2785C110.338 22.2785 109.857 22.7969 109.857 23.732V38.9831C109.857 39.8648 110.338 40.3458 111.218 40.3458C112.115 40.3458 112.611 39.8648 112.611 38.9831V29.1453C112.611 26.8848 114.852 24.9451 116.683 24.9451C117.211 24.9451 117.515 24.9985 117.814 25.0573C118.081 25.1054 118.359 25.1588 118.769 25.1588C119.575 25.1588 120.226 24.5069 120.226 23.7C120.226 22.9305 119.575 22.0327 117.729 22.0327Z" fill="#2B3A45"/>
<path d="M71.6946 22.0327C69.9122 22.0327 68.3645 22.7755 67.3452 24.1061V23.732C67.3452 22.7809 66.8596 22.2785 65.9524 22.2785C65.0719 22.2785 64.5862 22.7969 64.5862 23.732V38.9831C64.5862 39.8648 65.0719 40.3458 65.9524 40.3458C66.849 40.3458 67.3452 39.8648 67.3452 38.9831V29.1453C67.3452 26.1528 69.4053 24.7901 71.3265 24.7901C73.9735 24.7901 75.1848 27.0452 75.1848 29.1453V38.9831C75.1848 39.8648 75.6652 40.3458 76.5457 40.3458C77.4423 40.3458 77.9385 39.8648 77.9385 38.9831V28.162C77.9385 24.3252 74.7632 22.0327 71.6946 22.0327Z" fill="#2B3A45"/>
<path d="M161.095 22.0327C159.312 22.0327 157.77 22.7755 156.745 24.1061V23.732C156.745 22.7809 156.265 22.2785 155.352 22.2785C154.477 22.2785 153.991 22.7969 153.991 23.732V38.9831C153.991 39.8648 154.477 40.3458 155.352 40.3458C156.254 40.3458 156.745 39.8648 156.745 38.9831V29.1453C156.745 26.1528 158.811 24.7901 160.726 24.7901C163.379 24.7901 164.585 27.0452 164.585 29.1453V38.9831C164.585 39.8648 165.07 40.3458 165.946 40.3458C166.848 40.3458 167.344 39.8648 167.344 38.9831V28.162C167.344 24.3252 164.168 22.0327 161.095 22.0327Z" fill="#2B3A45"/>
<path d="M45.2087 22.0327C43.1114 22.0327 41.2596 22.9091 40.0909 24.4214V23.732C40.0909 22.7808 39.6105 22.2785 38.6979 22.2785C37.8174 22.2785 37.3372 22.7969 37.3372 23.732V38.9831C37.3372 39.8648 37.8334 40.3458 38.714 40.3458C39.5945 40.3458 40.0909 39.8648 40.0909 38.9831V29.1453C40.0909 26.8848 42.3323 24.9451 44.1628 24.9451C44.6911 24.9451 44.9953 24.9985 45.2942 25.0573C45.561 25.1054 45.8385 25.1588 46.2548 25.1588C47.0553 25.1588 47.7063 24.5069 47.7063 23.7C47.7063 22.9305 47.0552 22.0327 45.2087 22.0327Z" fill="#2B3A45"/>
<path d="M38.5806 16.8066H24.2089C23.3337 16.8066 22.8481 17.3036 22.8481 18.1853C22.8481 19.0617 23.3337 19.564 24.2089 19.564H30.0152V38.9832C30.0152 39.8649 30.5169 40.3512 31.3975 40.3512C32.2727 40.3512 32.7743 39.8649 32.7743 38.9832V19.564H38.5806C39.4558 19.564 39.9415 19.0617 39.9415 18.1853C39.9415 17.3036 39.4558 16.8066 38.5806 16.8066Z" fill="#2B3A45"/>
<mask id="mask0_345_374" style="mask-type:luminance" maskUnits="userSpaceOnUse" x="7" y="29" width="20" height="5">
<path d="M7.297 29.6211H26.4236V33.7251H7.297V29.6211Z" fill="white"/>
</mask>
<g mask="url(#mask0_345_374)">
<mask id="mask1_345_374" style="mask-type:luminance" maskUnits="userSpaceOnUse" x="8" y="30" width="18" height="4">
<path d="M9.72511 30.6631C8.84456 30.6631 8.36426 31.1654 8.36426 32.0418C8.36426 32.9182 8.84456 33.4205 9.72511 33.4205H24.0914C24.9667 33.4205 25.4523 32.9182 25.4523 32.0418C25.4523 31.1654 24.9667 30.6631 24.0914 30.6631H9.72511Z" fill="white"/>
</mask>
<g mask="url(#mask1_345_374)">
<path d="M8.36426 30.6631V33.4205H25.4523V30.6631H8.36426Z" fill="url(#paint0_linear_345_374)"/>
</g>
</g>
<mask id="mask2_345_374" style="mask-type:luminance" maskUnits="userSpaceOnUse" x="14" y="22" width="13" height="5">
<path d="M14.1278 22.7812H26.4235V26.8853H14.1278V22.7812Z" fill="white"/>
</mask>
<g mask="url(#mask2_345_374)">
<mask id="mask3_345_374" style="mask-type:luminance" maskUnits="userSpaceOnUse" x="15" y="23" width="11" height="4">
<path d="M16.4386 23.7324C15.5634 23.7324 15.0778 24.2347 15.0778 25.1111C15.0778 25.9928 15.5634 26.4951 16.4386 26.4951H24.0914C24.9666 26.4951 25.4523 25.9928 25.4523 25.1111C25.4523 24.2347 24.9666 23.7324 24.0914 23.7324H16.4386Z" fill="white"/>
</mask>
<g mask="url(#mask3_345_374)">
<path d="M15.0778 23.7324V26.4951H25.4523V23.7324H15.0778Z" fill="url(#paint1_linear_345_374)"/>
</g>
</g>
<mask id="mask4_345_374" style="mask-type:luminance" maskUnits="userSpaceOnUse" x="0" y="36" width="27" height="5">
<path d="M0.466064 36.4614H26.4237V40.5654H0.466064V36.4614Z" fill="white"/>
</mask>
<g mask="url(#mask4_345_374)">
<mask id="mask5_345_374" style="mask-type:luminance" maskUnits="userSpaceOnUse" x="1" y="37" width="25" height="4">
<path d="M3.00631 37.5942C2.20047 37.5942 1.7255 38.0111 1.65613 38.7592V39.1813C1.7255 39.9295 2.20047 40.3516 3.00631 40.3516H24.0915C24.9667 40.3516 25.4524 39.8493 25.4524 38.9729C25.4524 38.0912 24.9667 37.5942 24.0915 37.5942H3.00631Z" fill="white"/>
</mask>
<g mask="url(#mask5_345_374)">
<path d="M1.65613 37.5942V40.3516H25.4524V37.5942H1.65613Z" fill="url(#paint2_linear_345_374)"/>
</g>
</g>
</g>
<defs>
<linearGradient id="paint0_linear_345_374" x1="8.36255" y1="32.0416" x2="25.4522" y2="32.0416" gradientUnits="userSpaceOnUse">
<stop stop-color="#00AB5C"/>
<stop offset="0.03125" stop-color="#00AB5C"/>
<stop offset="0.046875" stop-color="#00AB5C"/>
<stop offset="0.0625" stop-color="#00AA5C"/>
<stop offset="0.125" stop-color="#00AA5C"/>
<stop offset="0.15625" stop-color="#00A95C"/>
<stop offset="0.1875" stop-color="#00A85C"/>
<stop offset="0.203125" stop-color="#00A75C"/>
<stop offset="0.21875" stop-color="#00A65B"/>
<stop offset="0.234375" stop-color="#00A65B"/>
<stop offset="0.25" stop-color="#00A55B"/>
<stop offset="0.28125" stop-color="#00A45B"/>
<stop offset="0.296875" stop-color="#00A35B"/>
<stop offset="0.3125" stop-color="#00A25B"/>
<stop offset="0.328125" stop-color="#00A15B"/>
<stop offset="0.34375" stop-color="#00A05B"/>
<stop offset="0.359375" stop-color="#00A05B"/>
<stop offset="0.375" stop-color="#009F5A"/>
<stop offset="0.390625" stop-color="#009E5A"/>
<stop offset="0.40625" stop-color="#009D5A"/>
<stop offset="0.414062" stop-color="#009C5A"/>
<stop offset="0.421875" stop-color="#009B5A"/>
<stop offset="0.429688" stop-color="#009A5A"/>
<stop offset="0.4375" stop-color="#009A5A"/>
<stop offset="0.453125" stop-color="#00995A"/>
<stop offset="0.46875" stop-color="#00985A"/>
<stop offset="0.484375" stop-color="#00975A"/>
<stop offset="0.492188" stop-color="#00965A"/>
<stop offset="0.5" stop-color="#00955A"/>
<stop offset="0.507813" stop-color="#00955A"/>
<stop offset="0.515625" stop-color="#00945A"/>
<stop offset="0.523437" stop-color="#009359"/>
<stop offset="0.53125" stop-color="#009359"/>
<stop offset="0.539063" stop-color="#009259"/>
<stop offset="0.546875" stop-color="#009159"/>
<stop offset="0.554688" stop-color="#009059"/>
<stop offset="0.5625" stop-color="#009059"/>
<stop offset="0.570313" stop-color="#008F59"/>
<stop offset="0.578125" stop-color="#008E59"/>
<stop offset="0.585937" stop-color="#008D59"/>
<stop offset="0.59375" stop-color="#008C59"/>
<stop offset="0.601563" stop-color="#008B59"/>
<stop offset="0.609375" stop-color="#008B59"/>
<stop offset="0.617188" stop-color="#008A58"/>
<stop offset="0.625" stop-color="#008958"/>
<stop offset="0.632813" stop-color="#008858"/>
<stop offset="0.640625" stop-color="#008758"/>
<stop offset="0.648437" stop-color="#008658"/>
<stop offset="0.65625" stop-color="#008558"/>
<stop offset="0.664063" stop-color="#008457"/>
<stop offset="0.671875" stop-color="#008357"/>
<stop offset="0.679688" stop-color="#008257"/>
<stop offset="0.6875" stop-color="#008157"/>
<stop offset="0.695313" stop-color="#008057"/>
<stop offset="0.703125" stop-color="#007F57"/>
<stop offset="0.710937" stop-color="#007E56"/>
<stop offset="0.71875" stop-color="#007D56"/>
<stop offset="0.726563" stop-color="#007C56"/>
<stop offset="0.730469" stop-color="#007B56"/>
<stop offset="0.734375" stop-color="#007A56"/>
<stop offset="0.738281" stop-color="#007955"/>
<stop offset="0.742188" stop-color="#007955"/>
<stop offset="0.746094" stop-color="#007855"/>
<stop offset="0.75" stop-color="#007755"/>
<stop offset="0.757813" stop-color="#007755"/>
<stop offset="0.765625" stop-color="#007655"/>
<stop offset="0.773437" stop-color="#007555"/>
<stop offset="0.777344" stop-color="#007454"/>
<stop offset="0.78125" stop-color="#007354"/>
<stop offset="0.785156" stop-color="#007354"/>
<stop offset="0.789063" stop-color="#007253"/>
<stop offset="0.792969" stop-color="#007153"/>
<stop offset="0.796875" stop-color="#007153"/>
<stop offset="0.804688" stop-color="#007053"/>
<stop offset="0.808594" stop-color="#006F52"/>
<stop offset="0.8125" stop-color="#006E52"/>
<stop offset="0.816406" stop-color="#006E52"/>
<stop offset="0.820313" stop-color="#006D52"/>
<stop offset="0.824219" stop-color="#006C52"/>
<stop offset="0.828125" stop-color="#006B52"/>
<stop offset="0.832031" stop-color="#006B52"/>
<stop offset="0.835937" stop-color="#006A51"/>
<stop offset="0.839844" stop-color="#006951"/>
<stop offset="0.84375" stop-color="#006951"/>
<stop offset="0.847656" stop-color="#006851"/>
<stop offset="0.851563" stop-color="#006750"/>
<stop offset="0.855469" stop-color="#006650"/>
<stop offset="0.859375" stop-color="#006650"/>
<stop offset="0.867188" stop-color="#006550"/>
<stop offset="0.871094" stop-color="#00644F"/>
<stop offset="0.875" stop-color="#00644F"/>
<stop offset="0.878906" stop-color="#00634F"/>
<stop offset="0.882813" stop-color="#00624E"/>
<stop offset="0.886719" stop-color="#00614E"/>
<stop offset="0.890625" stop-color="#00614E"/>
<stop offset="0.894531" stop-color="#00604E"/>
<stop offset="0.898437" stop-color="#005F4D"/>
<stop offset="0.902344" stop-color="#005E4D"/>
<stop offset="0.90625" stop-color="#005E4D"/>
<stop offset="0.910156" stop-color="#005D4D"/>
<stop offset="0.914063" stop-color="#005C4C"/>
<stop offset="0.917969" stop-color="#005C4C"/>
<stop offset="0.921875" stop-color="#005B4C"/>
<stop offset="0.925781" stop-color="#005A4C"/>
<stop offset="0.929688" stop-color="#00594B"/>
<stop offset="0.933594" stop-color="#00594B"/>
<stop offset="0.9375" stop-color="#00584B"/>
<stop offset="0.941406" stop-color="#00574A"/>
<stop offset="0.945313" stop-color="#00564A"/>
<stop offset="0.949219" stop-color="#005649"/>
<stop offset="0.953125" stop-color="#005549"/>
<stop offset="0.957031" stop-color="#005449"/>
<stop offset="0.960937" stop-color="#005348"/>
<stop offset="0.964844" stop-color="#005348"/>
<stop offset="0.96875" stop-color="#005248"/>
<stop offset="0.972656" stop-color="#005147"/>
<stop offset="0.976563" stop-color="#005047"/>
<stop offset="0.980469" stop-color="#005046"/>
<stop offset="0.984375" stop-color="#004F46"/>
<stop offset="0.988281" stop-color="#004E46"/>
<stop offset="0.992188" stop-color="#004D45"/>
<stop offset="0.996094" stop-color="#004D45"/>
<stop offset="1" stop-color="#004C45"/>
</linearGradient>
<linearGradient id="paint1_linear_345_374" x1="15.0773" y1="25.1129" x2="25.4522" y2="25.1129" gradientUnits="userSpaceOnUse">
<stop stop-color="#00AB5C"/>
<stop offset="0.03125" stop-color="#00AB5C"/>
<stop offset="0.046875" stop-color="#00AB5C"/>
<stop offset="0.0625" stop-color="#00AA5C"/>
<stop offset="0.125" stop-color="#00AA5C"/>
<stop offset="0.15625" stop-color="#00A95C"/>
<stop offset="0.1875" stop-color="#00A85C"/>
<stop offset="0.203125" stop-color="#00A75C"/>
<stop offset="0.21875" stop-color="#00A65B"/>
<stop offset="0.234375" stop-color="#00A65B"/>
<stop offset="0.25" stop-color="#00A55B"/>
<stop offset="0.28125" stop-color="#00A45B"/>
<stop offset="0.296875" stop-color="#00A35B"/>
<stop offset="0.3125" stop-color="#00A25B"/>
<stop offset="0.328125" stop-color="#00A15B"/>
<stop offset="0.34375" stop-color="#00A05B"/>
<stop offset="0.359375" stop-color="#00A05B"/>
<stop offset="0.375" stop-color="#009F5A"/>
<stop offset="0.390625" stop-color="#009E5A"/>
<stop offset="0.40625" stop-color="#009D5A"/>
<stop offset="0.414063" stop-color="#009C5A"/>
<stop offset="0.421875" stop-color="#009B5A"/>
<stop offset="0.429688" stop-color="#009A5A"/>
<stop offset="0.4375" stop-color="#009A5A"/>
<stop offset="0.453125" stop-color="#00995A"/>
<stop offset="0.46875" stop-color="#00985A"/>
<stop offset="0.484375" stop-color="#00975A"/>
<stop offset="0.492188" stop-color="#00965A"/>
<stop offset="0.5" stop-color="#00955A"/>
<stop offset="0.507813" stop-color="#00955A"/>
<stop offset="0.515625" stop-color="#00945A"/>
<stop offset="0.523438" stop-color="#009359"/>
<stop offset="0.53125" stop-color="#009359"/>
<stop offset="0.539062" stop-color="#009259"/>
<stop offset="0.546875" stop-color="#009159"/>
<stop offset="0.554687" stop-color="#009059"/>
<stop offset="0.5625" stop-color="#009059"/>
<stop offset="0.570313" stop-color="#008F59"/>
<stop offset="0.578125" stop-color="#008E59"/>
<stop offset="0.585938" stop-color="#008D59"/>
<stop offset="0.59375" stop-color="#008C59"/>
<stop offset="0.601563" stop-color="#008B59"/>
<stop offset="0.609375" stop-color="#008B59"/>
<stop offset="0.617188" stop-color="#008A58"/>
<stop offset="0.625" stop-color="#008958"/>
<stop offset="0.632813" stop-color="#008858"/>
<stop offset="0.640625" stop-color="#008758"/>
<stop offset="0.648438" stop-color="#008658"/>
<stop offset="0.65625" stop-color="#008558"/>
<stop offset="0.664062" stop-color="#008457"/>
<stop offset="0.671875" stop-color="#008357"/>
<stop offset="0.679687" stop-color="#008257"/>
<stop offset="0.6875" stop-color="#008157"/>
<stop offset="0.695313" stop-color="#008057"/>
<stop offset="0.703125" stop-color="#007F57"/>
<stop offset="0.710938" stop-color="#007E56"/>
<stop offset="0.71875" stop-color="#007D56"/>
<stop offset="0.726563" stop-color="#007C56"/>
<stop offset="0.730469" stop-color="#007B56"/>
<stop offset="0.734375" stop-color="#007A56"/>
<stop offset="0.738281" stop-color="#007955"/>
<stop offset="0.742188" stop-color="#007955"/>
<stop offset="0.746094" stop-color="#007855"/>
<stop offset="0.75" stop-color="#007855"/>
<stop offset="0.757813" stop-color="#007755"/>
<stop offset="0.765625" stop-color="#007655"/>
<stop offset="0.773438" stop-color="#007555"/>
<stop offset="0.777344" stop-color="#007454"/>
<stop offset="0.78125" stop-color="#007354"/>
<stop offset="0.785156" stop-color="#007354"/>
<stop offset="0.789062" stop-color="#007253"/>
<stop offset="0.792969" stop-color="#007153"/>
<stop offset="0.796875" stop-color="#007153"/>
<stop offset="0.804687" stop-color="#007053"/>
<stop offset="0.808594" stop-color="#006F52"/>
<stop offset="0.8125" stop-color="#006E52"/>
<stop offset="0.816406" stop-color="#006E52"/>
<stop offset="0.820313" stop-color="#006D52"/>
<stop offset="0.824219" stop-color="#006C52"/>
<stop offset="0.828125" stop-color="#006B52"/>
<stop offset="0.832031" stop-color="#006B52"/>
<stop offset="0.835938" stop-color="#006A51"/>
<stop offset="0.839844" stop-color="#006951"/>
<stop offset="0.84375" stop-color="#006951"/>
<stop offset="0.847656" stop-color="#006851"/>
<stop offset="0.851563" stop-color="#006750"/>
<stop offset="0.855469" stop-color="#006650"/>
<stop offset="0.859375" stop-color="#006650"/>
<stop offset="0.867188" stop-color="#006550"/>
<stop offset="0.871094" stop-color="#00644F"/>
<stop offset="0.875" stop-color="#00644F"/>
<stop offset="0.878906" stop-color="#00634F"/>
<stop offset="0.882813" stop-color="#00624E"/>
<stop offset="0.886719" stop-color="#00614E"/>
<stop offset="0.890625" stop-color="#00614E"/>
<stop offset="0.894531" stop-color="#00604E"/>
<stop offset="0.898438" stop-color="#005F4D"/>
<stop offset="0.902344" stop-color="#005E4D"/>
<stop offset="0.90625" stop-color="#005E4D"/>
<stop offset="0.910156" stop-color="#005D4D"/>
<stop offset="0.914062" stop-color="#005C4C"/>
<stop offset="0.917969" stop-color="#005C4C"/>
<stop offset="0.921875" stop-color="#005B4C"/>
<stop offset="0.925781" stop-color="#005A4C"/>
<stop offset="0.929687" stop-color="#00594B"/>
<stop offset="0.933594" stop-color="#00594B"/>
<stop offset="0.9375" stop-color="#00584B"/>
<stop offset="0.941406" stop-color="#00574A"/>
<stop offset="0.945313" stop-color="#00564A"/>
<stop offset="0.949219" stop-color="#005649"/>
<stop offset="0.953125" stop-color="#005549"/>
<stop offset="0.957031" stop-color="#005449"/>
<stop offset="0.960938" stop-color="#005348"/>
<stop offset="0.964844" stop-color="#005348"/>
<stop offset="0.96875" stop-color="#005248"/>
<stop offset="0.972656" stop-color="#005147"/>
<stop offset="0.976563" stop-color="#005047"/>
<stop offset="0.980469" stop-color="#005046"/>
<stop offset="0.984375" stop-color="#004F46"/>
<stop offset="0.988281" stop-color="#004E46"/>
<stop offset="0.992188" stop-color="#004D45"/>
<stop offset="0.996094" stop-color="#004D45"/>
<stop offset="1" stop-color="#004C45"/>
</linearGradient>
<linearGradient id="paint2_linear_345_374" x1="1.65463" y1="38.9708" x2="25.4523" y2="38.9708" gradientUnits="userSpaceOnUse">
<stop stop-color="#00AB5C"/>
<stop offset="0.03125" stop-color="#00AB5C"/>
<stop offset="0.046875" stop-color="#00AB5C"/>
<stop offset="0.0625" stop-color="#00AA5C"/>
<stop offset="0.125" stop-color="#00AA5C"/>
<stop offset="0.15625" stop-color="#00A95C"/>
<stop offset="0.1875" stop-color="#00A85C"/>
<stop offset="0.203125" stop-color="#00A75C"/>
<stop offset="0.21875" stop-color="#00A65B"/>
<stop offset="0.234375" stop-color="#00A65B"/>
<stop offset="0.25" stop-color="#00A55B"/>
<stop offset="0.28125" stop-color="#00A45B"/>
<stop offset="0.296875" stop-color="#00A35B"/>
<stop offset="0.3125" stop-color="#00A25B"/>
<stop offset="0.328125" stop-color="#00A15B"/>
<stop offset="0.34375" stop-color="#00A05B"/>
<stop offset="0.359375" stop-color="#00A05B"/>
<stop offset="0.375" stop-color="#009F5A"/>
<stop offset="0.390625" stop-color="#009E5A"/>
<stop offset="0.40625" stop-color="#009D5A"/>
<stop offset="0.414063" stop-color="#009C5A"/>
<stop offset="0.421875" stop-color="#009B5A"/>
<stop offset="0.429688" stop-color="#009A5A"/>
<stop offset="0.4375" stop-color="#009A5A"/>
<stop offset="0.453125" stop-color="#00995A"/>
<stop offset="0.46875" stop-color="#00985A"/>
<stop offset="0.484375" stop-color="#00975A"/>
<stop offset="0.492188" stop-color="#00965A"/>
<stop offset="0.5" stop-color="#00955A"/>
<stop offset="0.507813" stop-color="#00945A"/>
<stop offset="0.515625" stop-color="#00945A"/>
<stop offset="0.523438" stop-color="#009359"/>
<stop offset="0.53125" stop-color="#009359"/>
<stop offset="0.539063" stop-color="#009259"/>
<stop offset="0.546875" stop-color="#009159"/>
<stop offset="0.554687" stop-color="#009059"/>
<stop offset="0.5625" stop-color="#009059"/>
<stop offset="0.570313" stop-color="#008F59"/>
<stop offset="0.578125" stop-color="#008E59"/>
<stop offset="0.585938" stop-color="#008D59"/>
<stop offset="0.59375" stop-color="#008C59"/>
<stop offset="0.601562" stop-color="#008B59"/>
<stop offset="0.609375" stop-color="#008B59"/>
<stop offset="0.617188" stop-color="#008A58"/>
<stop offset="0.625" stop-color="#008958"/>
<stop offset="0.632812" stop-color="#008858"/>
<stop offset="0.640625" stop-color="#008758"/>
<stop offset="0.648438" stop-color="#008658"/>
<stop offset="0.65625" stop-color="#008558"/>
<stop offset="0.664062" stop-color="#008457"/>
<stop offset="0.671875" stop-color="#008357"/>
<stop offset="0.679688" stop-color="#008257"/>
<stop offset="0.6875" stop-color="#008157"/>
<stop offset="0.695313" stop-color="#008057"/>
<stop offset="0.703125" stop-color="#007F57"/>
<stop offset="0.710938" stop-color="#007E56"/>
<stop offset="0.71875" stop-color="#007D56"/>
<stop offset="0.726563" stop-color="#007C56"/>
<stop offset="0.730469" stop-color="#007B56"/>
<stop offset="0.734375" stop-color="#007A56"/>
<stop offset="0.738281" stop-color="#007955"/>
<stop offset="0.742187" stop-color="#007955"/>
<stop offset="0.746094" stop-color="#007855"/>
<stop offset="0.75" stop-color="#007755"/>
<stop offset="0.757813" stop-color="#007755"/>
<stop offset="0.765625" stop-color="#007655"/>
<stop offset="0.773438" stop-color="#007555"/>
<stop offset="0.777344" stop-color="#007454"/>
<stop offset="0.78125" stop-color="#007354"/>
<stop offset="0.785156" stop-color="#007354"/>
<stop offset="0.789062" stop-color="#007253"/>
<stop offset="0.792969" stop-color="#007153"/>
<stop offset="0.796875" stop-color="#007153"/>
<stop offset="0.804688" stop-color="#007053"/>
<stop offset="0.808594" stop-color="#006F52"/>
<stop offset="0.8125" stop-color="#006E52"/>
<stop offset="0.816406" stop-color="#006E52"/>
<stop offset="0.820312" stop-color="#006D52"/>
<stop offset="0.824219" stop-color="#006C52"/>
<stop offset="0.828125" stop-color="#006B52"/>
<stop offset="0.832031" stop-color="#006B52"/>
<stop offset="0.835938" stop-color="#006A51"/>
<stop offset="0.839844" stop-color="#006951"/>
<stop offset="0.84375" stop-color="#006951"/>
<stop offset="0.847656" stop-color="#006851"/>
<stop offset="0.851563" stop-color="#006750"/>
<stop offset="0.855469" stop-color="#006650"/>
<stop offset="0.859375" stop-color="#006650"/>
<stop offset="0.867188" stop-color="#006550"/>
<stop offset="0.871094" stop-color="#00644F"/>
<stop offset="0.875" stop-color="#00644F"/>
<stop offset="0.878906" stop-color="#00634F"/>
<stop offset="0.882813" stop-color="#00624E"/>
<stop offset="0.886719" stop-color="#00614E"/>
<stop offset="0.890625" stop-color="#00614E"/>
<stop offset="0.894531" stop-color="#00604E"/>
<stop offset="0.898438" stop-color="#005F4D"/>
<stop offset="0.902344" stop-color="#005E4D"/>
<stop offset="0.90625" stop-color="#005E4D"/>
<stop offset="0.910156" stop-color="#005D4D"/>
<stop offset="0.914063" stop-color="#005C4C"/>
<stop offset="0.917969" stop-color="#005B4C"/>
<stop offset="0.921875" stop-color="#005B4C"/>
<stop offset="0.925781" stop-color="#005A4C"/>
<stop offset="0.929688" stop-color="#00594B"/>
<stop offset="0.933594" stop-color="#00594B"/>
<stop offset="0.9375" stop-color="#00584B"/>
<stop offset="0.941406" stop-color="#00574A"/>
<stop offset="0.945313" stop-color="#00564A"/>
<stop offset="0.949219" stop-color="#005649"/>
<stop offset="0.953125" stop-color="#005549"/>
<stop offset="0.957031" stop-color="#005449"/>
<stop offset="0.960938" stop-color="#005348"/>
<stop offset="0.964844" stop-color="#005348"/>
<stop offset="0.96875" stop-color="#005248"/>
<stop offset="0.972656" stop-color="#005147"/>
<stop offset="0.976562" stop-color="#005047"/>
<stop offset="0.980469" stop-color="#005046"/>
<stop offset="0.984375" stop-color="#004F46"/>
<stop offset="0.988281" stop-color="#004E46"/>
<stop offset="0.992188" stop-color="#004D45"/>
<stop offset="0.996094" stop-color="#004D45"/>
<stop offset="1" stop-color="#004C45"/>
</linearGradient>
<clipPath id="clip0_345_374">
<rect width="169" height="56" fill="white"/>
</clipPath>
</defs>
</svg>
