<svg width="170" height="56" viewBox="0 0 170 56" fill="none" xmlns="http://www.w3.org/2000/svg">
<path d="M0 28.1268C0 35.8856 4.81876 42.5135 11.5859 45.1056V11.1655C4.81876 13.7576 0 20.3681 0 28.1268Z" fill="#DC1928"/>
<path d="M17.9529 10C17.4484 10 16.9613 10.0174 16.4742 10.0522V11.3221H16.5612C23.3979 11.3743 28.9125 16.6454 28.8603 23.0994C28.8081 29.5186 23.2761 34.7026 16.4742 34.6853V46.219C16.9613 46.2537 17.4484 46.2711 17.9529 46.2711C27.8513 46.2711 35.9058 38.1471 35.9058 28.1269C35.8884 18.124 27.8513 10 17.9529 10Z" fill="#DC1928"/>
<path d="M52.3974 32.3716H46.6218L45.6129 35.3986H43.0556L48.0135 20.8901H51.0579L55.9636 35.3986H53.389L52.3974 32.3716ZM51.6667 30.1797L49.5096 23.7431L47.3525 30.1797H51.6667Z" fill="#DC1928"/>
<path d="M63.5658 24.8042H66.036V35.3985H63.5658V34.1634H63.4788C62.8177 35.0854 61.8957 35.6595 60.504 35.6595C58.3817 35.6595 57.0074 34.1112 57.0074 31.7279V24.8042H59.4776V31.467C59.4776 32.6499 60.0343 33.5197 61.3912 33.5197C62.8003 33.5197 63.5484 32.5107 63.5484 31.3104L63.5658 24.8042Z" fill="#DC1928"/>
<path d="M70.1764 32.3365C70.3329 33.2759 70.9592 33.85 72.2813 33.85C73.4991 33.85 74.1775 33.3455 74.1775 32.4583C74.1775 31.745 73.9166 31.3101 72.7858 31.1709L70.907 30.9448C68.7673 30.7012 67.8801 29.6749 67.8801 28.0222C67.8801 26.0043 69.5849 24.543 72.2117 24.543C74.9603 24.543 76.2999 26.1608 76.4216 27.7613H74.0036C73.8818 26.9089 73.2729 26.3696 72.1769 26.3696C71.0462 26.3696 70.3156 26.9089 70.3156 27.7265C70.3156 28.4049 70.6809 28.7877 71.8986 28.9268L73.76 29.153C75.8302 29.3965 76.6304 30.3533 76.6304 32.1103C76.6304 34.3023 74.7516 35.6592 72.2813 35.6592C69.4283 35.6592 67.9149 34.2501 67.7061 32.3191L70.1764 32.3365Z" fill="#DC1928"/>
<path d="M79.3094 26.6481H77.3088V24.8041H79.3268V20.8726H81.7797V24.8041H84.1803V26.6481H81.7797V32.0931C81.7797 33.0499 82.2668 33.45 83.1888 33.45H84.1977V35.4158H82.7539C80.4228 35.4158 79.292 34.3546 79.292 32.2671V26.6481H79.3094Z" fill="#DC1928"/>
<path d="M88.7382 35.3985H86.2679V24.8042H88.7382V26.4047H88.8252C89.3297 25.2391 90.1821 24.8042 91.0693 24.8042H92.2696V27.0135H91.1737C89.5384 27.0135 88.7556 27.8138 88.7556 29.7447L88.7382 35.3985Z" fill="#DC1928"/>
<path d="M96.2186 35.6592C94.218 35.6592 92.8611 34.4762 92.8611 32.493C92.8611 30.4055 94.4442 29.6053 96.149 29.3791L98.3758 29.1008C99.2282 29.0138 99.4195 28.6311 99.4195 28.0222C99.4195 27.1176 98.8281 26.4218 97.5929 26.4218C96.3404 26.4218 95.6793 27.1176 95.575 28.0918H93.0699C93.1395 26.3 94.6356 24.543 97.5407 24.543C100.289 24.543 101.907 26.1782 101.907 28.5963V33.589C101.907 34.2501 102.012 34.8937 102.133 35.4156H99.5935C99.5239 35.0155 99.4891 34.5632 99.4891 34.0413H99.4195C98.8976 34.9459 97.7495 35.6592 96.2186 35.6592ZM98.1322 30.5273L97.0362 30.7708C96.0099 30.997 95.3662 31.4319 95.3662 32.3887C95.3662 33.3455 95.9229 33.8326 97.0188 33.8326C98.2888 33.8326 99.4717 32.9975 99.4717 31.6058V29.9532C99.1586 30.2663 98.6715 30.4055 98.1322 30.5273Z" fill="#DC1928"/>
<path d="M104.082 32.5282V20.1421H106.552V32.3716C106.552 33.0327 106.83 33.4328 107.561 33.4328H108.378V35.3986H107.091C105.16 35.3986 104.082 34.2852 104.082 32.5282Z" fill="#DC1928"/>
<path d="M112.78 21.4993C112.78 22.3517 112.119 23.0128 111.266 23.0128C110.414 23.0128 109.753 22.3517 109.753 21.4993C109.753 20.6469 110.414 19.9858 111.266 19.9858C112.119 19.9858 112.78 20.6295 112.78 21.4993ZM112.501 24.8046V35.3989H110.031V24.8046H112.501Z" fill="#DC1928"/>
<path d="M117.581 35.6592C115.581 35.6592 114.224 34.4762 114.224 32.493C114.224 30.4055 115.807 29.6053 117.512 29.3791L119.738 29.1008C120.591 29.0138 120.782 28.6311 120.782 28.0222C120.782 27.1176 120.191 26.4218 118.955 26.4218C117.703 26.4218 117.042 27.1176 116.938 28.0918H114.432C114.502 26.3 115.998 24.543 118.903 24.543C121.652 24.543 123.27 26.1782 123.27 28.5963V33.589C123.27 34.2501 123.374 34.8937 123.496 35.4156H120.956C120.886 35.0155 120.852 34.5632 120.852 34.0413H120.782C120.243 34.9459 119.095 35.6592 117.581 35.6592ZM119.477 30.5273L118.381 30.7708C117.355 30.997 116.711 31.4319 116.711 32.3887C116.711 33.3455 117.285 33.8326 118.364 33.8326C119.634 33.8326 120.817 32.9975 120.817 31.6058V29.9532C120.504 30.2663 120.017 30.4055 119.477 30.5273Z" fill="#DC1928"/>
<path d="M135.656 20.8726C138.752 20.8726 140.718 22.647 140.718 25.5695C140.718 28.5617 138.735 30.3187 135.656 30.3187H132.037V35.3984H129.428V20.89H135.656V20.8726ZM138.057 25.5869C138.057 23.7951 136.961 23.0297 135.169 23.0297H132.037V28.179H135.169C136.961 28.179 138.057 27.4657 138.057 25.5869Z" fill="#DC1928"/>
<path d="M146.267 24.5605C149.294 24.5605 151.33 26.7525 151.33 30.1273C151.33 33.5022 149.312 35.6593 146.267 35.6593C143.241 35.6593 141.205 33.4848 141.205 30.1273C141.205 26.7525 143.241 24.5605 146.267 24.5605ZM148.807 29.6924C148.807 27.7093 147.833 26.5437 146.267 26.5437C144.684 26.5437 143.728 27.7093 143.728 29.6924V30.5448C143.728 32.528 144.702 33.6762 146.267 33.6762C147.851 33.6762 148.807 32.528 148.807 30.5448V29.6924Z" fill="#DC1928"/>
<path d="M154.896 32.3365C155.053 33.2759 155.679 33.85 157.001 33.85C158.219 33.85 158.897 33.3455 158.897 32.4583C158.897 31.745 158.636 31.3101 157.505 31.1709L155.627 30.9448C153.487 30.7012 152.6 29.6749 152.6 28.0222C152.6 26.0043 154.305 24.543 156.931 24.543C159.68 24.543 161.02 26.1608 161.141 27.7613H158.723C158.601 26.9089 157.993 26.3696 156.897 26.3696C155.766 26.3696 155.035 26.9089 155.035 27.7265C155.035 28.4049 155.401 28.7877 156.618 28.9268L158.48 29.153C160.532 29.3965 161.35 30.3533 161.35 32.1103C161.35 34.3023 159.471 35.6592 157.001 35.6592C154.148 35.6592 152.635 34.2501 152.426 32.3191L154.896 32.3365Z" fill="#DC1928"/>
<path d="M164.012 26.6481H162.011V24.8041H164.029V20.8726H166.482V24.8041H168.883V26.6481H166.482V32.0931C166.482 33.0499 166.969 33.45 167.891 33.45H168.9V35.4158H167.456C165.125 35.4158 163.994 34.3546 163.994 32.2671V26.6481H164.012Z" fill="#DC1928"/>
</svg>
