<svg width="24" height="24" viewBox="0 0 24 24" fill="none" xmlns="http://www.w3.org/2000/svg">
<path d="M4.00195 3H20.002C20.2672 3 20.5215 3.10536 20.7091 3.29289C20.8966 3.48043 21.002 3.73478 21.002 4V20C21.002 20.2652 20.8966 20.5196 20.7091 20.7071C20.5215 20.8946 20.2672 21 20.002 21H4.00195C3.73674 21 3.48238 20.8946 3.29485 20.7071C3.10731 20.5196 3.00195 20.2652 3.00195 20V4C3.00195 3.73478 3.10731 3.48043 3.29485 3.29289C3.48238 3.10536 3.73674 3 4.00195 3ZM17.302 15.94C17.202 15.89 17.152 15.74 17.152 15.639V8.006C17.152 7.906 17.202 7.756 17.302 7.655L18.257 6.55V6.5H14.842L12.282 12.978L9.36795 6.5H5.85295V6.55L6.75695 7.806C6.95795 8.006 7.00795 8.308 7.00795 8.559V14.082C7.05795 14.384 7.00795 14.735 6.85795 15.036L5.50095 16.894V16.944H9.11695V16.894L7.76095 15.087C7.61095 14.785 7.55995 14.484 7.61095 14.133V9.11C7.66095 9.21 7.71095 9.21 7.76095 9.411L11.175 17.044H11.225L14.541 8.76C14.491 9.06 14.491 9.412 14.491 9.664V15.589C14.491 15.739 14.441 15.839 14.341 15.94L13.336 16.894V16.944H18.257V16.894L17.302 15.94Z" fill="#CEED11"/>
</svg>
